<svg width="388" height="666" viewBox="0 0 388 666" fill="none" xmlns="http://www.w3.org/2000/svg">
<path d="M331 330.879V597.691C331 617.217 315.443 633 296.197 633H91.8034C72.557 633 57 617.217 57 597.691V68.3088C57 48.7829 72.557 33 91.8034 33H296.197C315.443 33 331 48.7829 331 68.3088V330.879Z" fill="#F5F5F5"/>
<path d="M135.374 20.1263H252.627C257.973 20.1263 262.275 24.511 262.275 29.9604V45.056C262.275 50.5055 257.973 54.8901 252.627 54.8901H135.374C130.027 54.8901 125.725 50.5055 125.725 45.056V29.9604C125.725 24.5736 130.027 20.1263 135.374 20.1263Z" fill="#E9E8E8"/>
<path d="M296.659 14.6373H91.3413C63.713 14.6373 41.2803 37.4887 41.2803 65.6326V600.367C41.2803 628.511 63.713 651.363 91.3413 651.363H296.659C324.287 651.363 346.72 628.511 346.72 600.367V65.6326C346.72 37.4887 324.287 14.6373 296.659 14.6373ZM330.155 330.945V597.254C330.155 616.743 314.69 632.496 295.559 632.496H92.3804C73.2484 632.496 57.7839 616.743 57.7839 597.254V68.8704C57.7839 49.3814 73.2484 33.6283 92.3804 33.6283H295.559C314.69 33.6283 330.155 49.3814 330.155 68.8704V330.945Z" fill="#E9E8E8"/>
<path d="M143.06 325.789H135.26L133.58 329.529H132.04L138.44 315.529H139.9L146.3 329.529H144.74L143.06 325.789ZM142.52 324.589L139.16 317.069L135.8 324.589H142.52ZM153.736 318.929C154.723 318.929 155.616 319.155 156.416 319.609C157.216 320.049 157.843 320.675 158.296 321.489C158.749 322.302 158.976 323.229 158.976 324.269C158.976 325.322 158.749 326.255 158.296 327.069C157.843 327.882 157.216 328.515 156.416 328.969C155.629 329.409 154.736 329.629 153.736 329.629C152.883 329.629 152.109 329.455 151.416 329.109C150.736 328.749 150.176 328.229 149.736 327.549V333.409H148.316V319.009H149.676V321.089C150.103 320.395 150.663 319.862 151.356 319.489C152.063 319.115 152.856 318.929 153.736 318.929ZM153.636 328.369C154.369 328.369 155.036 328.202 155.636 327.869C156.236 327.522 156.703 327.035 157.036 326.409C157.383 325.782 157.556 325.069 157.556 324.269C157.556 323.469 157.383 322.762 157.036 322.149C156.703 321.522 156.236 321.035 155.636 320.689C155.036 320.342 154.369 320.169 153.636 320.169C152.889 320.169 152.216 320.342 151.616 320.689C151.029 321.035 150.563 321.522 150.216 322.149C149.883 322.762 149.716 323.469 149.716 324.269C149.716 325.069 149.883 325.782 150.216 326.409C150.563 327.035 151.029 327.522 151.616 327.869C152.216 328.202 152.889 328.369 153.636 328.369ZM167.291 318.929C168.277 318.929 169.171 319.155 169.971 319.609C170.771 320.049 171.397 320.675 171.851 321.489C172.304 322.302 172.531 323.229 172.531 324.269C172.531 325.322 172.304 326.255 171.851 327.069C171.397 327.882 170.771 328.515 169.971 328.969C169.184 329.409 168.291 329.629 167.291 329.629C166.437 329.629 165.664 329.455 164.971 329.109C164.291 328.749 163.731 328.229 163.291 327.549V333.409H161.871V319.009H163.231V321.089C163.657 320.395 164.217 319.862 164.911 319.489C165.617 319.115 166.411 318.929 167.291 318.929ZM167.191 328.369C167.924 328.369 168.591 328.202 169.191 327.869C169.791 327.522 170.257 327.035 170.591 326.409C170.937 325.782 171.111 325.069 171.111 324.269C171.111 323.469 170.937 322.762 170.591 322.149C170.257 321.522 169.791 321.035 169.191 320.689C168.591 320.342 167.924 320.169 167.191 320.169C166.444 320.169 165.771 320.342 165.171 320.689C164.584 321.035 164.117 321.522 163.771 322.149C163.437 322.762 163.271 323.469 163.271 324.269C163.271 325.069 163.437 325.782 163.771 326.409C164.117 327.035 164.584 327.522 165.171 327.869C165.771 328.202 166.444 328.369 167.191 328.369ZM183.48 329.629C182.626 329.629 181.806 329.509 181.02 329.269C180.246 329.015 179.64 328.702 179.2 328.329L179.84 327.209C180.28 327.555 180.833 327.842 181.5 328.069C182.166 328.282 182.86 328.389 183.58 328.389C184.54 328.389 185.246 328.242 185.7 327.949C186.166 327.642 186.4 327.215 186.4 326.669C186.4 326.282 186.273 325.982 186.02 325.769C185.766 325.542 185.446 325.375 185.06 325.269C184.673 325.149 184.16 325.035 183.52 324.929C182.666 324.769 181.98 324.609 181.46 324.449C180.94 324.275 180.493 323.989 180.12 323.589C179.76 323.189 179.58 322.635 179.58 321.929C179.58 321.049 179.946 320.329 180.68 319.769C181.413 319.209 182.433 318.929 183.74 318.929C184.42 318.929 185.1 319.022 185.78 319.209C186.46 319.382 187.02 319.615 187.46 319.909L186.84 321.049C185.973 320.449 184.94 320.149 183.74 320.149C182.833 320.149 182.146 320.309 181.68 320.629C181.226 320.949 181 321.369 181 321.889C181 322.289 181.126 322.609 181.38 322.849C181.646 323.089 181.973 323.269 182.36 323.389C182.746 323.495 183.28 323.609 183.96 323.729C184.8 323.889 185.473 324.049 185.98 324.209C186.486 324.369 186.92 324.642 187.28 325.029C187.64 325.415 187.82 325.949 187.82 326.629C187.82 327.549 187.433 328.282 186.66 328.829C185.9 329.362 184.84 329.629 183.48 329.629ZM194.805 329.629C193.765 329.629 192.832 329.402 192.005 328.949C191.192 328.495 190.552 327.862 190.085 327.049C189.618 326.222 189.385 325.295 189.385 324.269C189.385 323.242 189.618 322.322 190.085 321.509C190.552 320.695 191.192 320.062 192.005 319.609C192.832 319.155 193.765 318.929 194.805 318.929C195.712 318.929 196.518 319.109 197.225 319.469C197.945 319.815 198.512 320.329 198.925 321.009L197.865 321.729C197.518 321.209 197.078 320.822 196.545 320.569C196.012 320.302 195.432 320.169 194.805 320.169C194.045 320.169 193.358 320.342 192.745 320.689C192.145 321.022 191.672 321.502 191.325 322.129C190.992 322.755 190.825 323.469 190.825 324.269C190.825 325.082 190.992 325.802 191.325 326.429C191.672 327.042 192.145 327.522 192.745 327.869C193.358 328.202 194.045 328.369 194.805 328.369C195.432 328.369 196.012 328.242 196.545 327.989C197.078 327.735 197.518 327.349 197.865 326.829L198.925 327.549C198.512 328.229 197.945 328.749 197.225 329.109C196.505 329.455 195.698 329.629 194.805 329.629ZM203.074 321.069C203.408 320.362 203.901 319.829 204.554 319.469C205.221 319.109 206.041 318.929 207.014 318.929V320.309L206.674 320.289C205.568 320.289 204.701 320.629 204.074 321.309C203.448 321.989 203.134 322.942 203.134 324.169V329.529H201.714V319.009H203.074V321.069ZM218.648 324.709H209.848C209.928 325.802 210.348 326.689 211.108 327.369C211.868 328.035 212.828 328.369 213.988 328.369C214.641 328.369 215.241 328.255 215.788 328.029C216.334 327.789 216.808 327.442 217.208 326.989L218.008 327.909C217.541 328.469 216.954 328.895 216.248 329.189C215.554 329.482 214.788 329.629 213.948 329.629C212.868 329.629 211.908 329.402 211.068 328.949C210.241 328.482 209.594 327.842 209.128 327.029C208.661 326.215 208.428 325.295 208.428 324.269C208.428 323.242 208.648 322.322 209.088 321.509C209.541 320.695 210.154 320.062 210.928 319.609C211.714 319.155 212.594 318.929 213.568 318.929C214.541 318.929 215.414 319.155 216.188 319.609C216.961 320.062 217.568 320.695 218.008 321.509C218.448 322.309 218.668 323.229 218.668 324.269L218.648 324.709ZM213.568 320.149C212.554 320.149 211.701 320.475 211.008 321.129C210.328 321.769 209.941 322.609 209.848 323.649H217.308C217.214 322.609 216.821 321.769 216.128 321.129C215.448 320.475 214.594 320.149 213.568 320.149ZM230.718 324.709H221.918C221.998 325.802 222.418 326.689 223.178 327.369C223.938 328.035 224.898 328.369 226.058 328.369C226.711 328.369 227.311 328.255 227.858 328.029C228.405 327.789 228.878 327.442 229.278 326.989L230.078 327.909C229.611 328.469 229.025 328.895 228.318 329.189C227.625 329.482 226.858 329.629 226.018 329.629C224.938 329.629 223.978 329.402 223.138 328.949C222.311 328.482 221.665 327.842 221.198 327.029C220.731 326.215 220.498 325.295 220.498 324.269C220.498 323.242 220.718 322.322 221.158 321.509C221.611 320.695 222.225 320.062 222.998 319.609C223.785 319.155 224.665 318.929 225.638 318.929C226.611 318.929 227.485 319.155 228.258 319.609C229.031 320.062 229.638 320.695 230.078 321.509C230.518 322.309 230.738 323.229 230.738 324.269L230.718 324.709ZM225.638 320.149C224.625 320.149 223.771 320.475 223.078 321.129C222.398 321.769 222.011 322.609 221.918 323.649H229.378C229.285 322.609 228.891 321.769 228.198 321.129C227.518 320.475 226.665 320.149 225.638 320.149ZM238.988 318.929C240.308 318.929 241.355 319.315 242.128 320.089C242.915 320.849 243.308 321.962 243.308 323.429V329.529H241.888V323.569C241.888 322.475 241.615 321.642 241.068 321.069C240.522 320.495 239.742 320.209 238.728 320.209C237.595 320.209 236.695 320.549 236.028 321.229C235.375 321.895 235.048 322.822 235.048 324.009V329.529H233.628V319.009H234.988V320.949C235.375 320.309 235.908 319.815 236.588 319.469C237.282 319.109 238.082 318.929 238.988 318.929Z" fill="black"/>
</svg>
